[
  {
    "id": "2",
    "name": "1 sesion de Ayahuasca europa sur",
    "description": ".",
    "price": "190",
    "max_part": "2",
    "state": "1",
    "created_at": "9/4/2020 21:44:00",
    "updated_at": "14/4/2020 20:13:08"
  },
  {
    "id": "3",
    "name": "2 Noches de retiro Europa sur",
    "description": ".",
    "price": "380",
    "max_part": "2",
    "state": "1",
    "created_at": "9/4/2020 21:45:53",
    "updated_at": "7/6/2020 17:34:56"
  },
  {
    "id": "4",
    "name": "3 Noches de retiro Europa sur",
    "description": ".",
    "price": "570",
    "max_part": "2",
    "state": "1",
    "created_at": "9/4/2020 21:49:27",
    "updated_at": "31/5/2020 18:11:46"
  },
  {
    "id": "5",
    "name": "4 sesiones de Ayahuasca Europa sur",
    "description": ".",
    "price": "670",
    "max_part": "2",
    "state": "1",
    "created_at": "9/4/2020 21:50:39",
    "updated_at": "14/4/2020 20:13:12"
  },
  {
    "id": "6",
    "name": "1 Sesiones Adicionales Europa sur",
    "description": ".",
    "price": "125",
    "max_part": "2",
    "state": "1",
    "created_at": "9/4/2020 21:51:14",
    "updated_at": "14/4/2020 20:13:12"
  },
  {
    "id": "7",
    "name": "2 sesiones adicionales Europa sur",
    "description": ".",
    "price": "220",
    "max_part": "2",
    "state": "1",
    "created_at": "9/4/2020 21:51:48",
    "updated_at": "14/4/2020 20:13:13"
  },
  {
    "id": "8",
    "name": "3 Sesiones Adicionales Europa sur",
    "description": ".",
    "price": "375",
    "max_part": "2",
    "state": "1",
    "created_at": "9/4/2020 21:52:59",
    "updated_at": "2/6/2020 17:10:14"
  },
  {
    "id": "9",
    "name": "Sesion Inwasi Europa sur",
    "description": ".",
    "price": "50",
    "max_part": "2",
    "state": "1",
    "created_at": "9/4/2020 21:57:29",
    "updated_at": "14/4/2020 20:13:15"
  },
  {
    "id": "10",
    "name": "Ciclo EEA 4 noches Europa sur",
    "description": ".",
    "price": "600",
    "max_part": "2",
    "state": "1",
    "created_at": "9/4/2020 22:00:59",
    "updated_at": "14/4/2020 20:13:16"
  },
  {
    "id": "11",
    "name": "Ciclo EEA 3 noches Eurpa sur",
    "description": ".",
    "price": "495",
    "max_part": "2",
    "state": "1",
    "created_at": "9/4/2020 22:05:49",
    "updated_at": "14/4/2020 20:13:18"
  },
  {
    "id": "12",
    "name": "1 Noche de retiro Rumanía",
    "description": ".",
    "price": "160",
    "max_part": "2",
    "state": "1",
    "created_at": "9/4/2020 22:12:12",
    "updated_at": "14/4/2020 20:13:18"
  },
  {
    "id": "13",
    "name": "2 Noches de retiro Rumanía",
    "description": ".",
    "price": "320",
    "max_part": "2",
    "state": "1",
    "created_at": "9/4/2020 22:12:50",
    "updated_at": "14/4/2020 20:13:19"
  },
  {
    "id": "14",
    "name": "3 Noches de retiro Rumanía",
    "description": ".",
    "price": "480",
    "max_part": "2",
    "state": "1",
    "created_at": "9/4/2020 22:13:16",
    "updated_at": "14/4/2020 20:13:20"
  },
  {
    "id": "15",
    "name": "4 Noches de retiro Rumanía",
    "description": ".",
    "price": "640",
    "max_part": "2",
    "state": "1",
    "created_at": "9/4/2020 22:13:46",
    "updated_at": "14/4/2020 20:13:22"
  },
  {
    "id": "16",
    "name": "1 Sesion opcional Rumanía",
    "description": ".",
    "price": "110",
    "max_part": "2",
    "state": "1",
    "created_at": "9/4/2020 22:14:09",
    "updated_at": "14/4/2020 20:13:22"
  },
  {
    "id": "17",
    "name": "2 Sesiones opcionales Rumanía",
    "description": ".",
    "price": "200",
    "max_part": "2",
    "state": "1",
    "created_at": "9/4/2020 22:14:25",
    "updated_at": "14/4/2020 20:13:23"
  },
  {
    "id": "18",
    "name": "3 Sesiones adicionales Rumanía",
    "description": ".",
    "price": "290",
    "max_part": "2",
    "state": "1",
    "created_at": "9/4/2020 22:15:03",
    "updated_at": "14/4/2020 20:13:24"
  },
  {
    "id": "19",
    "name": "4 Sesiones adicionales Rumanía",
    "description": ".",
    "price": "370",
    "max_part": "2",
    "state": "1",
    "created_at": "9/4/2020 22:15:29",
    "updated_at": "14/4/2020 20:13:25"
  },
  {
    "id": "20",
    "name": "5 Sesiones adicionales Rumanía",
    "description": ".",
    "price": "450",
    "max_part": "2",
    "state": "1",
    "created_at": "9/4/2020 22:16:04",
    "updated_at": "14/4/2020 20:13:27"
  },
  {
    "id": "21",
    "name": "1 Sesion de Inwasi Rumanía",
    "description": ".",
    "price": "50",
    "max_part": "2",
    "state": "1",
    "created_at": "9/4/2020 22:16:58",
    "updated_at": "14/4/2020 20:13:28"
  },
  {
    "id": "22",
    "name": "1 Taller temazcal Europa sur",
    "description": ".",
    "price": "25",
    "max_part": "2",
    "state": "1",
    "created_at": "9/4/2020 22:21:43",
    "updated_at": "14/4/2020 20:13:28"
  },
  {
    "id": "23",
    "name": "Ciclo EEA 2 noches Europa sur",
    "description": ".",
    "price": "370",
    "max_part": "2",
    "state": "1",
    "created_at": "9/4/2020 22:23:23",
    "updated_at": "14/4/2020 20:13:29"
  },
  {
    "id": "24",
    "name": "Ciclo EEA 4 noches Europa sur Alumno interno",
    "description": ".",
    "price": "420",
    "max_part": "2",
    "state": "1",
    "created_at": "9/4/2020 22:27:24",
    "updated_at": "14/4/2020 20:13:30"
  },
  {
    "id": "25",
    "name": "Ciclo EEA 3 noches Europa sur Alumno interno",
    "description": ".",
    "price": "315",
    "max_part": "2",
    "state": "1",
    "created_at": "9/4/2020 22:28:00",
    "updated_at": "14/4/2020 20:13:33"
  },
  {
    "id": "26",
    "name": "Ciclo EEA 2 noches Europa sur Alumno interno",
    "description": ".",
    "price": "210",
    "max_part": "2",
    "state": "1",
    "created_at": "9/4/2020 22:28:15",
    "updated_at": "14/4/2020 20:13:35"
  },
  {
    "id": "27",
    "name": "1 Noche de retiro Portugal",
    "description": ".",
    "price": "170",
    "max_part": "2",
    "state": "1",
    "created_at": "9/4/2020 22:29:59",
    "updated_at": "14/4/2020 20:13:34"
  },
  {
    "id": "28",
    "name": "2 Noches de retiro Portugal",
    "description": ".",
    "price": "340",
    "max_part": "2",
    "state": "1",
    "created_at": "9/4/2020 22:30:46",
    "updated_at": "14/4/2020 20:13:36"
  },
  {
    "id": "29",
    "name": "3 Noches de retiro Portugal",
    "description": ".",
    "price": "490",
    "max_part": "2",
    "state": "1",
    "created_at": "9/4/2020 22:31:13",
    "updated_at": "14/4/2020 20:13:37"
  },
  {
    "id": "30",
    "name": "1 Sesion adicional Portugal",
    "description": ".",
    "price": "125",
    "max_part": "2",
    "state": "1",
    "created_at": "9/4/2020 22:32:30",
    "updated_at": "14/4/2020 20:13:38"
  },
  {
    "id": "31",
    "name": "2 Sesiones adicional Portugal",
    "description": ".",
    "price": "210",
    "max_part": "2",
    "state": "1",
    "created_at": "9/4/2020 22:32:59",
    "updated_at": "14/4/2020 20:13:05"
  },
  {
    "id": "32",
    "name": "3 Sesiones adicional Portugal",
    "description": ".",
    "price": "300",
    "max_part": "2",
    "state": "1",
    "created_at": "9/4/2020 22:33:14",
    "updated_at": "14/4/2020 20:13:04"
  },
  {
    "id": "33",
    "name": "1 Sesion Inwasi",
    "description": ".",
    "price": "40",
    "max_part": "2",
    "state": "1",
    "created_at": "9/4/2020 22:37:56",
    "updated_at": "14/4/2020 20:13:03"
  },
  {
    "id": "34",
    "name": "1 Sesion Yopo Portugal",
    "description": ".",
    "price": "80",
    "max_part": "2",
    "state": "1",
    "created_at": "9/4/2020 22:40:22",
    "updated_at": "14/4/2020 20:13:01"
  },
  {
    "id": "35",
    "name": "1 Sesion adicional Alumno en Ciclo Europa sur",
    "description": ".",
    "price": "70",
    "max_part": "2",
    "state": "1",
    "created_at": "9/4/2020 22:40:57",
    "updated_at": "14/4/2020 20:13:00"
  },
  {
    "id": "36",
    "name": "1 Noche de retiro Europa norte",
    "description": ".",
    "price": "230",
    "max_part": "2",
    "state": "1",
    "created_at": "9/4/2020 22:43:54",
    "updated_at": "14/4/2020 20:12:59"
  },
  {
    "id": "37",
    "name": "2 Noches de retiro Europa norte",
    "description": ".",
    "price": "425",
    "max_part": "2",
    "state": "1",
    "created_at": "9/4/2020 22:45:07",
    "updated_at": "14/4/2020 20:12:58"
  },
  {
    "id": "38",
    "name": "3 Noches de retiro Europa norte",
    "description": ".",
    "price": "610",
    "max_part": "2",
    "state": "1",
    "created_at": "9/4/2020 22:45:31",
    "updated_at": "14/4/2020 20:12:57"
  },
  {
    "id": "39",
    "name": "3 Sesiones Adicionales Europa Norte",
    "description": ".",
    "price": "390",
    "max_part": "2",
    "state": "1",
    "created_at": "9/4/2020 22:46:12",
    "updated_at": "29/4/2020 08:57:45"
  },
  {
    "id": "40",
    "name": "2 Sesiones Adicionales Europa Norte",
    "description": ".",
    "price": "280",
    "max_part": "2",
    "state": "1",
    "created_at": "9/4/2020 22:47:12",
    "updated_at": "14/4/2020 20:12:55"
  },
  {
    "id": "41",
    "name": "1 Sesión Adicionales Europa Norte",
    "description": ".",
    "price": "150",
    "max_part": "2",
    "state": "1",
    "created_at": "9/4/2020 22:47:43",
    "updated_at": "14/4/2020 20:12:52"
  },
  {
    "id": "42",
    "name": "1 Sesion adicional Alumno en Ciclo completo Europa norte",
    "description": ".",
    "price": "85",
    "max_part": "2",
    "state": "1",
    "created_at": "9/4/2020 22:54:42",
    "updated_at": "14/4/2020 20:12:53"
  },
  {
    "id": "43",
    "name": "1 Sesión Rapé Europa Norte",
    "description": ".",
    "price": "50",
    "max_part": "2",
    "state": "1",
    "created_at": "9/4/2020 22:55:22",
    "updated_at": "14/4/2020 20:12:49"
  },
  {
    "id": "44",
    "name": "1 Sesión ambil Europa Norte",
    "description": ".",
    "price": "50",
    "max_part": "50",
    "state": "1",
    "created_at": "9/4/2020 22:55:41",
    "updated_at": "10/4/2020 10:33:30"
  },
  {
    "id": "45",
    "name": "1 Sesión ambil Europa Norte Alumnos",
    "description": ".",
    "price": "35",
    "max_part": "2",
    "state": "1",
    "created_at": "9/4/2020 22:56:14",
    "updated_at": "10/4/2020 10:33:29"
  },
  {
    "id": "46",
    "name": "1 Sesión rape Europa Norte Alumnos",
    "description": ".",
    "price": "35",
    "max_part": "2",
    "state": "1",
    "created_at": "9/4/2020 22:57:16",
    "updated_at": "10/4/2020 10:33:28"
  },
  {
    "id": "47",
    "name": "1 Sesión Inwasi Europa Norte",
    "description": ".",
    "price": "60",
    "max_part": "2",
    "state": "1",
    "created_at": "9/4/2020 22:57:39",
    "updated_at": "10/4/2020 10:33:28"
  },
  {
    "id": "48",
    "name": "1 Curso Aula virtual",
    "description": ".",
    "price": "7",
    "max_part": "2",
    "state": "1",
    "created_at": "9/4/2020 23:04:03",
    "updated_at": "10/4/2020 10:33:26"
  },
  {
    "id": "49",
    "name": "1 Ciclo Aula virtual",
    "description": "Duración 1.30 a 2hrs",
    "price": "25",
    "max_part": "2",
    "state": "1",
    "created_at": "9/4/2020 23:04:30",
    "updated_at": "10/4/2020 10:33:25"
  },
  {
    "id": "50",
    "name": "1 Modulo Aula virtual",
    "description": "Duración: 6 a 8 horas",
    "price": "75",
    "max_part": "2",
    "state": "1",
    "created_at": "9/4/2020 23:05:03",
    "updated_at": "10/4/2020 10:33:24"
  },
  {
    "id": "51",
    "name": "TEMAZCAL VICENTE S MADRID",
    "description": "PAGOS DE PERSONAS A VICENTE",
    "price": "15",
    "max_part": "0",
    "state": "1",
    "created_at": "26/4/2020 18:36:32",
    "updated_at": "26/4/2020 18:36:32"
  },
  {
    "id": "52",
    "name": "ESPACIO ABIERTO DONACION MINIMA",
    "description": "DONACION MINIMA",
    "price": "3",
    "max_part": "0",
    "state": "1",
    "created_at": "26/4/2020 18:37:06",
    "updated_at": "26/4/2020 18:37:06"
  },
  {
    "id": "53",
    "name": "SUSCRIPCION MENSUAL ESPACIO ABIERTO",
    "description": "SUSCRIPCION MENSUAL CON EL PRECIO SUGERIDO DE 15€",
    "price": "450",
    "max_part": "0",
    "state": "1",
    "created_at": "26/4/2020 18:37:42",
    "updated_at": "26/4/2020 18:37:42"
  },
  {
    "id": "54",
    "name": "Espacio abierto",
    "description": "-",
    "price": "10",
    "max_part": "0",
    "state": "1",
    "created_at": "27/4/2020 18:30:05",
    "updated_at": "12/7/2020 18:53:31"
  },
  {
    "id": "55",
    "name": "Alquiler Madrid precio equipo",
    "description": "precio equipo",
    "price": "200",
    "max_part": "0",
    "state": "1",
    "created_at": "28/4/2020 15:30:33",
    "updated_at": "28/4/2020 15:30:33"
  },
  {
    "id": "56",
    "name": "4 Medicinas adicionales",
    "description": ".",
    "price": "500",
    "max_part": "0",
    "state": "1",
    "created_at": "29/4/2020 08:58:16",
    "updated_at": "29/4/2020 08:58:16"
  },
  {
    "id": "57",
    "name": "4 sesiones adicionales Europa Norte",
    "description": ".",
    "price": "500",
    "max_part": "0",
    "state": "1",
    "created_at": "29/4/2020 09:03:42",
    "updated_at": "29/4/2020 09:03:42"
  },
  {
    "id": "58",
    "name": "TALLER LYM",
    "description": "PACK COMPLETO",
    "price": "140",
    "max_part": "0",
    "state": "1",
    "created_at": "29/4/2020 11:45:36",
    "updated_at": "29/4/2020 11:45:36"
  },
  {
    "id": "59",
    "name": "Donacion Espacio abierto",
    "description": "Donacion libre",
    "price": "150",
    "max_part": "0",
    "state": "1",
    "created_at": "29/4/2020 13:39:06",
    "updated_at": "29/4/2020 13:39:06"
  },
  {
    "id": "60",
    "name": "1 TALLER DE LIDERES Y MENTORES",
    "description": "MADRID 30 de abril al 03 de Mayo",
    "price": "35",
    "max_part": "0",
    "state": "1",
    "created_at": "2/5/2020 11:33:22",
    "updated_at": "2/5/2020 11:33:22"
  },
  {
    "id": "61",
    "name": "1 medicina adicional equipo",
    "description": "-",
    "price": "40",
    "max_part": "0",
    "state": "1",
    "created_at": "3/5/2020 20:32:26",
    "updated_at": "3/5/2020 20:32:26"
  },
  {
    "id": "62",
    "name": "TALLER LYM PARA TRADUCTORES",
    "description": "-",
    "price": "105",
    "max_part": "0",
    "state": "1",
    "created_at": "4/5/2020 10:58:48",
    "updated_at": "4/5/2020 10:58:48"
  },
  {
    "id": "63",
    "name": "TALLER LYM PARA SUSCRIPCION MENSUAL",
    "description": "-",
    "price": "80",
    "max_part": "0",
    "state": "1",
    "created_at": "4/5/2020 11:15:41",
    "updated_at": "4/5/2020 11:15:41"
  },
  {
    "id": "64",
    "name": "TALLERES LYM 08-09 DE MAYO",
    "description": "-",
    "price": "70",
    "max_part": "0",
    "state": "1",
    "created_at": "8/5/2020 11:11:09",
    "updated_at": "8/5/2020 11:11:09"
  },
  {
    "id": "65",
    "name": "Encuentro mistico con Alberto",
    "description": "-",
    "price": "125",
    "max_part": "0",
    "state": "1",
    "created_at": "10/5/2020 10:27:04",
    "updated_at": "20/5/2020 12:20:32"
  },
  {
    "id": "66",
    "name": "INTEGRACION ONLINE",
    "description": "-",
    "price": "30",
    "max_part": "0",
    "state": "1",
    "created_at": "11/5/2020 09:53:52",
    "updated_at": "11/5/2020 09:53:52"
  },
  {
    "id": "67",
    "name": "SUSCRIPCION MENSUAL MINIMO ARGENTINA",
    "description": "-",
    "price": "9000",
    "max_part": "0",
    "state": "1",
    "created_at": "11/5/2020 10:22:26",
    "updated_at": "11/5/2020 10:22:26"
  },
  {
    "id": "68",
    "name": "Clase de LYM ARS con Suscripción",
    "description": "-",
    "price": "2000",
    "max_part": "0",
    "state": "1",
    "created_at": "11/5/2020 10:41:11",
    "updated_at": "11/5/2020 10:41:11"
  },
  {
    "id": "69",
    "name": "GRAN RETIRO ONLINE Y PRESENCIAL CON MEDICINAS 3 NOCHES",
    "description": "-",
    "price": "570",
    "max_part": "0",
    "state": "1",
    "created_at": "11/5/2020 14:32:23",
    "updated_at": "11/5/2020 14:32:23"
  },
  {
    "id": "70",
    "name": "PACK A, ASESORAMIENTO BASICO",
    "description": "TRATAMIENTO ENTHEOS",
    "price": "375",
    "max_part": "0",
    "state": "1",
    "created_at": "13/5/2020 09:49:46",
    "updated_at": "13/5/2020 09:49:46"
  },
  {
    "id": "71",
    "name": "PACK A, ASESORAMIENTO PSICOTERAPEUTICO",
    "description": "TRATAMIENTO ENTHEOS",
    "price": "425",
    "max_part": "0",
    "state": "1",
    "created_at": "13/5/2020 09:50:15",
    "updated_at": "13/5/2020 09:50:15"
  },
  {
    "id": "72",
    "name": "PACK A, ASESORAMIENTO MEDICO",
    "description": "TRATAMIENTO ENTHEOS",
    "price": "475",
    "max_part": "0",
    "state": "1",
    "created_at": "13/5/2020 09:50:52",
    "updated_at": "13/5/2020 09:50:52"
  },
  {
    "id": "73",
    "name": "PACK B ENTHEOS ASESORAMIENTO BASICO",
    "description": "Tratamiento entieso",
    "price": "605",
    "max_part": "0",
    "state": "1",
    "created_at": "13/5/2020 10:47:49",
    "updated_at": "13/5/2020 10:47:49"
  },
  {
    "id": "74",
    "name": "PACK B ENTHEOS ASESORAMIENTO MEDICO",
    "description": "Tratamiento Entheos",
    "price": "705",
    "max_part": "0",
    "state": "1",
    "created_at": "13/5/2020 10:48:19",
    "updated_at": "13/5/2020 10:49:34"
  },
  {
    "id": "75",
    "name": "PACK B ENTHEOS ASESORAMIENTO PSICOTERAPEUTICO",
    "description": "Tratamiento Entheos",
    "price": "655",
    "max_part": "0",
    "state": "1",
    "created_at": "13/5/2020 10:49:19",
    "updated_at": "13/5/2020 10:49:19"
  },
  {
    "id": "76",
    "name": "PACK C ENTHEOS ASESORAMIENTO BASICO",
    "description": "Tratamiento entieso",
    "price": "955",
    "max_part": "0",
    "state": "1",
    "created_at": "13/5/2020 10:50:25",
    "updated_at": "13/5/2020 10:50:25"
  },
  {
    "id": "77",
    "name": "PACK C ENTHEOS ASESORAMIENTO PSICOTERAPEUTICO",
    "description": "Tratamientos Entheos",
    "price": "1005",
    "max_part": "0",
    "state": "1",
    "created_at": "13/5/2020 10:50:56",
    "updated_at": "13/5/2020 10:50:56"
  },
  {
    "id": "78",
    "name": "PACK C ENTHEOS ASESORAMIENTO MEDICO",
    "description": "Tratamiento Entheos",
    "price": "1055",
    "max_part": "0",
    "state": "1",
    "created_at": "13/5/2020 10:51:16",
    "updated_at": "13/5/2020 10:51:25"
  },
  {
    "id": "79",
    "name": "PACK D ENTHEOS ASESORAMIENTO BASICO",
    "description": "Tratamiento Entheos",
    "price": "495",
    "max_part": "0",
    "state": "1",
    "created_at": "13/5/2020 10:52:00",
    "updated_at": "13/5/2020 10:52:00"
  },
  {
    "id": "80",
    "name": "PACK D ENTHEOS ASESORAMIENTO PSICOTERAPEUTICO",
    "description": "tratamiento entheos",
    "price": "545",
    "max_part": "0",
    "state": "1",
    "created_at": "13/5/2020 10:52:26",
    "updated_at": "13/5/2020 10:52:26"
  },
  {
    "id": "81",
    "name": "PACK D ENTHEOS ASESORAMIENTO MEDICO",
    "description": "Tratamiento Entheos",
    "price": "595",
    "max_part": "0",
    "state": "1",
    "created_at": "13/5/2020 10:52:48",
    "updated_at": "13/5/2020 10:52:48"
  },
  {
    "id": "82",
    "name": "PACK E ENTHEOS ASESORAMIENTO MEDICO",
    "description": "SOLO MEDICO",
    "price": "275",
    "max_part": "0",
    "state": "1",
    "created_at": "13/5/2020 10:53:18",
    "updated_at": "13/5/2020 10:53:18"
  },
  {
    "id": "83",
    "name": "PACK F ENTHEOS ASESORAMIENTO PSICOTERAPEUTICO",
    "description": "Tratamiento Entheos",
    "price": "635",
    "max_part": "0",
    "state": "1",
    "created_at": "13/5/2020 10:54:12",
    "updated_at": "13/5/2020 10:54:12"
  },
  {
    "id": "84",
    "name": "PACK F ENTHEOS ASESORAMIENTO BASICO",
    "description": "TRATAMIENTO ENTHEOS",
    "price": "585",
    "max_part": "0",
    "state": "1",
    "created_at": "13/5/2020 10:54:35",
    "updated_at": "13/5/2020 10:54:35"
  },
  {
    "id": "85",
    "name": "PACK F ENTHEOS ASESORAMIENTO MEDICO",
    "description": "-",
    "price": "685",
    "max_part": "0",
    "state": "1",
    "created_at": "13/5/2020 10:54:51",
    "updated_at": "13/5/2020 10:54:51"
  },
  {
    "id": "86",
    "name": "TALLER EC 15 DE MAYO",
    "description": "-",
    "price": "35",
    "max_part": "0",
    "state": "1",
    "created_at": "18/5/2020 15:11:28",
    "updated_at": "18/5/2020 15:11:28"
  },
  {
    "id": "87",
    "name": "TALLER 16 DE MAYO",
    "description": "-",
    "price": "35",
    "max_part": "0",
    "state": "1",
    "created_at": "18/5/2020 15:11:45",
    "updated_at": "18/5/2020 15:11:45"
  },
  {
    "id": "88",
    "name": "Pack 3 integraciones online",
    "description": "-",
    "price": "80",
    "max_part": "0",
    "state": "1",
    "created_at": "19/5/2020 19:12:23",
    "updated_at": "19/5/2020 19:12:23"
  },
  {
    "id": "89",
    "name": "1 taller EC LATAM",
    "description": "-",
    "price": "32",
    "max_part": "0",
    "state": "1",
    "created_at": "20/5/2020 08:54:54",
    "updated_at": "20/5/2020 08:54:54"
  },
  {
    "id": "90",
    "name": "1 Taller L&M LATAM",
    "description": "-",
    "price": "32",
    "max_part": "0",
    "state": "1",
    "created_at": "20/5/2020 08:55:28",
    "updated_at": "20/5/2020 08:55:28"
  },
  {
    "id": "91",
    "name": "1 semana de suscripción con 7inc por clase",
    "description": "-",
    "price": "49",
    "max_part": "0",
    "state": "1",
    "created_at": "20/5/2020 12:19:15",
    "updated_at": "20/5/2020 12:19:15"
  },
  {
    "id": "92",
    "name": "Encuentro mistico con Traducción",
    "description": "-",
    "price": "175",
    "max_part": "0",
    "state": "1",
    "created_at": "20/5/2020 12:20:55",
    "updated_at": "20/5/2020 12:20:55"
  },
  {
    "id": "93",
    "name": "Entrada festival Madrid",
    "description": "-",
    "price": "25",
    "max_part": "0",
    "state": "1",
    "created_at": "21/5/2020 18:13:20",
    "updated_at": "21/5/2020 18:13:20"
  },
  {
    "id": "94",
    "name": "Consumo Festival Madrid",
    "description": "-",
    "price": "15",
    "max_part": "0",
    "state": "1",
    "created_at": "21/5/2020 18:15:21",
    "updated_at": "21/5/2020 18:15:21"
  },
  {
    "id": "95",
    "name": "Pago préstamo Erik de Fabrizzio",
    "description": "-",
    "price": "465",
    "max_part": "0",
    "state": "1",
    "created_at": "21/5/2020 19:53:46",
    "updated_at": "21/5/2020 19:53:46"
  },
  {
    "id": "96",
    "name": "Pack X Dominic K",
    "description": "126 gramos de aya en bolsas de 6\n63 capsulas san pedro\n15 capsulas iboga",
    "price": "1120",
    "max_part": "0",
    "state": "1",
    "created_at": "22/5/2020 11:49:11",
    "updated_at": "22/5/2020 11:49:11"
  },
  {
    "id": "97",
    "name": "Pago a Erik de Vittoria M",
    "description": "-",
    "price": "620",
    "max_part": "0",
    "state": "1",
    "created_at": "22/5/2020 17:34:17",
    "updated_at": "22/5/2020 17:34:17"
  },
  {
    "id": "98",
    "name": "2 noches de retiro online con medicina Europa sur",
    "description": "Online con medicina",
    "price": "260",
    "max_part": "0",
    "state": "1",
    "created_at": "25/5/2020 09:01:21",
    "updated_at": "25/5/2020 09:01:21"
  },
  {
    "id": "99",
    "name": "1 noche de online con medicinas Europa sur",
    "description": "-",
    "price": "130",
    "max_part": "0",
    "state": "1",
    "created_at": "25/5/2020 09:03:22",
    "updated_at": "25/5/2020 09:03:22"
  },
  {
    "id": "100",
    "name": "1 TALLER EC 23 DE MAYO ON AIR",
    "description": "-",
    "price": "20",
    "max_part": "2",
    "state": "1",
    "created_at": "25/5/2020 13:09:12",
    "updated_at": "25/5/2020 13:09:12"
  },
  {
    "id": "101",
    "name": "Pack X -Miriam Martin Canales",
    "description": "110grs de ayahuasca\n28 capsulas de san Pedro\nasesoramiento psicologico",
    "price": "592",
    "max_part": "0",
    "state": "1",
    "created_at": "29/5/2020 21:24:30",
    "updated_at": "29/5/2020 21:24:30"
  },
  {
    "id": "102",
    "name": "2 Noches retiro online con Medicinas Europa sur",
    "description": "-",
    "price": "250",
    "max_part": "0",
    "state": "1",
    "created_at": "31/5/2020 18:13:48",
    "updated_at": "31/5/2020 18:13:48"
  },
  {
    "id": "103",
    "name": "3 Noches de retiro online con medicinas Europa sur",
    "description": "-",
    "price": "340",
    "max_part": "0",
    "state": "1",
    "created_at": "31/5/2020 18:14:16",
    "updated_at": "31/5/2020 18:14:16"
  },
  {
    "id": "104",
    "name": "TRANSFER BARCELONA ESTACION CALDES DE ESTRAC",
    "description": "-",
    "price": "10",
    "max_part": "2",
    "state": "1",
    "created_at": "2/6/2020 17:15:57",
    "updated_at": "2/6/2020 17:15:57"
  },
  {
    "id": "105",
    "name": "1 NOCHE DE RETIRO EUROPA SUR COMUNERO",
    "description": "-",
    "price": "171",
    "max_part": "0",
    "state": "1",
    "created_at": "2/6/2020 19:05:27",
    "updated_at": "2/6/2020 19:05:27"
  },
  {
    "id": "106",
    "name": "2 NOCHES DE RETIRO EUROPA SUR COMUNERO",
    "description": "-.",
    "price": "342",
    "max_part": "0",
    "state": "1",
    "created_at": "2/6/2020 19:05:54",
    "updated_at": "2/6/2020 19:05:54"
  },
  {
    "id": "107",
    "name": "3 NOCHES DE RETIRO EUROPA SUR COMUNERO",
    "description": "-",
    "price": "513",
    "max_part": "0",
    "state": "1",
    "created_at": "2/6/2020 19:06:10",
    "updated_at": "2/6/2020 19:06:10"
  },
  {
    "id": "108",
    "name": "3 TALLERES CON ALBERTO VARELA EN MADRID PRESENCIAL Y ONLINE",
    "description": "-",
    "price": "70",
    "max_part": "0",
    "state": "1",
    "created_at": "2/6/2020 19:07:04",
    "updated_at": "2/6/2020 19:07:04"
  },
  {
    "id": "109",
    "name": "Alquiler Madrid para Socios Externos",
    "description": "Habitación compartida con 3 personas o más.",
    "price": "300",
    "max_part": "0",
    "state": "1",
    "created_at": "6/6/2020 18:15:18",
    "updated_at": "6/6/2020 18:15:18"
  },
  {
    "id": "110",
    "name": "1 Taller de alverto on air ( Jueves a Sábado)",
    "description": "-",
    "price": "35",
    "max_part": "0",
    "state": "1",
    "created_at": "6/6/2020 18:18:45",
    "updated_at": "6/6/2020 18:18:45"
  },
  {
    "id": "111",
    "name": "1 Noche Retiro Escadinavia",
    "description": "-",
    "price": "285",
    "max_part": "0",
    "state": "1",
    "created_at": "7/6/2020 16:54:13",
    "updated_at": "7/6/2020 16:56:43"
  },
  {
    "id": "112",
    "name": "2 Noches Retiro Escandinavia",
    "description": "-",
    "price": "550",
    "max_part": "0",
    "state": "1",
    "created_at": "7/6/2020 16:55:22",
    "updated_at": "7/6/2020 16:56:34"
  },
  {
    "id": "113",
    "name": "3 Noches Retiro Escandinavia",
    "description": "-",
    "price": "775",
    "max_part": "0",
    "state": "1",
    "created_at": "7/6/2020 16:56:20",
    "updated_at": "7/6/2020 16:56:20"
  },
  {
    "id": "114",
    "name": "4 Noches Retiro Escandinavia",
    "description": "-",
    "price": "976",
    "max_part": "0",
    "state": "1",
    "created_at": "7/6/2020 16:57:12",
    "updated_at": "7/6/2020 16:57:12"
  },
  {
    "id": "115",
    "name": "1 Sesión adicional Escandinavia",
    "description": "-",
    "price": "165",
    "max_part": "0",
    "state": "1",
    "created_at": "7/6/2020 16:57:38",
    "updated_at": "7/6/2020 16:57:38"
  },
  {
    "id": "116",
    "name": "2 Sesión adicional Escandinavia",
    "description": "-",
    "price": "320",
    "max_part": "0",
    "state": "1",
    "created_at": "7/6/2020 16:57:50",
    "updated_at": "7/6/2020 16:57:50"
  },
  {
    "id": "117",
    "name": "3 Sesiones adicional Escandinavia",
    "description": "-",
    "price": "460",
    "max_part": "0",
    "state": "1",
    "created_at": "7/6/2020 16:58:05",
    "updated_at": "7/6/2020 16:58:05"
  },
  {
    "id": "118",
    "name": "4 Sesiones adicional Escandinavia",
    "description": "-",
    "price": "610",
    "max_part": "0",
    "state": "1",
    "created_at": "7/6/2020 16:58:24",
    "updated_at": "7/6/2020 16:58:24"
  },
  {
    "id": "119",
    "name": "1 Estadia Epicentro",
    "description": "-",
    "price": "35",
    "max_part": "0",
    "state": "1",
    "created_at": "7/6/2020 18:52:05",
    "updated_at": "7/6/2020 18:52:05"
  },
  {
    "id": "120",
    "name": "Pack X Liliana Braga",
    "description": "30 capsulas de Aya\n20 gr Aya liquida\n5€ envio",
    "price": "215",
    "max_part": "0",
    "state": "1",
    "created_at": "8/6/2020 15:53:01",
    "updated_at": "8/6/2020 15:53:01"
  },
  {
    "id": "121",
    "name": "Pack X Aurora Patrascu",
    "description": "30 capsulas iboga\n30 capsulas de aya\n125 asesoramiento Medico",
    "price": "450",
    "max_part": "0",
    "state": "1",
    "created_at": "8/6/2020 15:54:30",
    "updated_at": "8/6/2020 15:54:30"
  },
  {
    "id": "122",
    "name": "PACK F ARGENTINOS ASESORAMIENTO BASICO, 39.800ARS  CON DESCUENTO DE 63%",
    "description": "150gr aya liquida + 1 disolución 100ml",
    "price": "15000",
    "max_part": "0",
    "state": "1",
    "created_at": "10/6/2020 13:04:19",
    "updated_at": "10/6/2020 13:07:52"
  },
  {
    "id": "123",
    "name": "PACK X- GIOVANNI ZULBERTI",
    "description": "-",
    "price": "255",
    "max_part": "0",
    "state": "1",
    "created_at": "10/6/2020 13:14:16",
    "updated_at": "10/6/2020 13:14:16"
  },
  {
    "id": "124",
    "name": "Alquiler Milan equipo",
    "description": "-",
    "price": "250",
    "max_part": "0",
    "state": "1",
    "created_at": "17/6/2020 11:06:02",
    "updated_at": "17/6/2020 11:06:02"
  },
  {
    "id": "125",
    "name": "Taller L&M formación presencial",
    "description": ".",
    "price": "175",
    "max_part": "0",
    "state": "1",
    "created_at": "18/6/2020 11:56:11",
    "updated_at": "18/6/2020 11:56:11"
  },
  {
    "id": "126",
    "name": "Taller LyM Oline",
    "description": "-",
    "price": "105",
    "max_part": "0",
    "state": "1",
    "created_at": "19/6/2020 10:59:55",
    "updated_at": "19/6/2020 10:59:55"
  },
  {
    "id": "127",
    "name": "Alquiler Madrid Socios Beinclub",
    "description": "-",
    "price": "300",
    "max_part": "0",
    "state": "1",
    "created_at": "25/6/2020 17:14:17",
    "updated_at": "25/6/2020 17:14:17"
  },
  {
    "id": "128",
    "name": "Pack X Adela de Juan",
    "description": "60 capsulas de San Pedro + 30 cápsulas  de Ayahuasca",
    "price": "480",
    "max_part": "0",
    "state": "1",
    "created_at": "1/7/2020 15:05:19",
    "updated_at": "1/7/2020 15:05:19"
  },
  {
    "id": "129",
    "name": "Estadías madrid socios del club",
    "description": "-",
    "price": "45",
    "max_part": "0",
    "state": "1",
    "created_at": "1/7/2020 15:05:43",
    "updated_at": "1/7/2020 15:05:43"
  },
  {
    "id": "130",
    "name": "Clase EC Retiro Rumanía",
    "description": "-",
    "price": "20",
    "max_part": "0",
    "state": "1",
    "created_at": "2/7/2020 15:05:18",
    "updated_at": "2/7/2020 15:05:18"
  },
  {
    "id": "131",
    "name": "pack x Diana Nastase",
    "description": "60 capsulas San Pedro + Asesoramiento médico",
    "price": "440",
    "max_part": "0",
    "state": "1",
    "created_at": "2/7/2020 15:06:31",
    "updated_at": "2/7/2020 15:06:31"
  },
  {
    "id": "132",
    "name": "Pack X Andrea Dinca",
    "description": "30 capsulas Iboga",
    "price": "350",
    "max_part": "0",
    "state": "1",
    "created_at": "6/7/2020 12:25:16",
    "updated_at": "6/7/2020 12:25:16"
  },
  {
    "id": "133",
    "name": "Compra Tienda Luis Miguel",
    "description": "-",
    "price": "145",
    "max_part": "0",
    "state": "1",
    "created_at": "12/7/2020 18:42:33",
    "updated_at": "12/7/2020 18:42:33"
  },
  {
    "id": "134",
    "name": "Estadía Epicentro Barcelona",
    "description": "-",
    "price": "35",
    "max_part": "0",
    "state": "1",
    "created_at": "12/7/2020 18:46:38",
    "updated_at": "12/7/2020 18:46:38"
  }
]